{"count": 1,
"listens": [
    {
       "listened_at": 1520950368,
       "recording_msid": "d682bc19-fc27-4ae2-8723-3f9ad65e2f28",
       "track_metadata": {
            "additional_info": {
               "artist_mbids": ["371c472e-2fc8-402b-9154-61776163d470"],
               "artist_msid": "986d1d1a-06ec-4053-8e8a-231087af892d",
               "recording_mbid": None,
               "release_mbid": None,
               "release_msid": None,
               "release_name": None,
               "tags": [],
            },
           "artist_name": "Mantar",
           "track_name": "The Huntsmen"
        }
    }
    ],
"user_id": "kaliko-dev"
}
